Full-Subtractor/Full_Subtractor.vcd
$date
  Sun Mar 01 16:21:47 2020
$end
$version
  GHDL v0
$end
$timescale
  1 fs
$end
$var reg 1 ! a $end
$var reg 1 " b $end
$var reg 1 # c $end
$var reg 1 $ diff $end
$var reg 1 % borrow $end
$scope module fullsubtractor $end
$var reg 1 & a $end
$var reg 1 ' b $end
$var reg 1 ( c $end
$var reg 1 ) diff $end
$var reg 1 * borrow $end
$upscope $end
$enddefinitions $end
#0
0!
0"
0#
0$
0%
0&
0'
0(
0)
0*
#1000000
1#
1$
1%
1(
1)
1*
#2000000
1"
0#
1'
0(
#3000000
1#
0$
1(
0)
#4000000
1!
0"
0#
1$
0%
1&
0'
0(
1)
0*
#5000000
1#
0$
1(
0)
#6000000
1"
0#
1'
0(
#7000000
1#
1$
1%
1(
1)
1*
