3-To-8-Decoder/Decoder_3_To_8.vcd
$date
  Sun Mar 01 20:40:32 2020
$end
$version
  GHDL v0
$end
$timescale
  1 fs
$end
$var reg 1 ! i2 $end
$var reg 1 " i1 $end
$var reg 1 # i0 $end
$var reg 1 $ d7 $end
$var reg 1 % d6 $end
$var reg 1 & d5 $end
$var reg 1 ' d4 $end
$var reg 1 ( d3 $end
$var reg 1 ) d2 $end
$var reg 1 * d1 $end
$var reg 1 + d0 $end
$scope module decoder3to8 $end
$var reg 1 , i2 $end
$var reg 1 - i1 $end
$var reg 1 . i0 $end
$var reg 1 / d7 $end
$var reg 1 0 d6 $end
$var reg 1 1 d5 $end
$var reg 1 2 d4 $end
$var reg 1 3 d3 $end
$var reg 1 4 d2 $end
$var reg 1 5 d1 $end
$var reg 1 6 d0 $end
$upscope $end
$enddefinitions $end
#0
0!
0"
0#
0$
0%
0&
0'
0(
0)
0*
1+
0,
0-
0.
0/
00
01
02
03
04
05
16
#1000000
1#
1*
0+
1.
15
06
#2000000
1"
0#
1)
0*
1-
0.
14
05
#3000000
1#
1(
0)
1.
13
04
#4000000
1!
0"
0#
1'
0(
1,
0-
0.
12
03
#5000000
1#
1&
0'
1.
11
02
#6000000
1"
0#
1%
0&
1-
0.
10
01
#7000000
1#
1$
0%
1.
1/
00
